(50), 22   50   44   16   20   62   23   60   13   75   48   7   14   30   33
66   90   31   45 26   34   87   97   91   35   72   94   64   6   19   24   42
12   74   11   37   53   84   29   73   8   54   92   85   80   88   81   36   93   38

(50), 22   50   44   16   20   62   23   60   13   75   48   7   14   30   33
66   90   31   45   26   34   87   97   91   35   72   94   64   6   19   24
42   12   74   11   37   53   84   29   73   8   54   92   85   80   88   81   36   93   38


（8），49，38, 27，13，97，49, 65, 76

（8），49，38, 27，13，97，49, 65, 76
